-------------------------------------------------------------------------------
Test set: es.ulpgc.eii.hpds.dsmo.AppTest
-------------------------------------------------------------------------------
Tests run: 1, Failures: 0, Errors: 0, Skipped: 0, Time elapsed: 0.015 sec
